@startuml
set namespaceSeparator ::

class "lojin::authentication::bloc::authentication_bloc.dart::AuthenticationBloc" {
  -AuthenticationRepository _authenticationRepository
  -UserRepository _userRepository
  -StreamSubscription<AuthenticationStatus> _authenticationStatusSubscription
  +Future<void> close()
  -void _onAuthenticationStatusChanged()
  -void _onAuthenticationLogoutRequested()
  -Future<User?> _tryGetUser()
}

"lojin::authentication::bloc::authentication_bloc.dart::AuthenticationBloc" o-- "authentication_repository::src::authentication_repository.dart::AuthenticationRepository"
"lojin::authentication::bloc::authentication_bloc.dart::AuthenticationBloc" o-- "user_repository::src::user_repository.dart::UserRepository"
"lojin::authentication::bloc::authentication_bloc.dart::AuthenticationBloc" o-- "dart::async::StreamSubscription<AuthenticationStatus>"
"bloc::src::bloc.dart::Bloc" <|-- "lojin::authentication::bloc::authentication_bloc.dart::AuthenticationBloc"

abstract class "lojin::authentication::bloc::authentication_bloc.dart::AuthenticationEvent" {
  +List<Object> props
}

"equatable::src::equatable.dart::Equatable" <|-- "lojin::authentication::bloc::authentication_bloc.dart::AuthenticationEvent"

class "lojin::authentication::bloc::authentication_bloc.dart::AuthenticationStatusChanged" {
  +AuthenticationStatus status
  +List<Object> props
}

"lojin::authentication::bloc::authentication_bloc.dart::AuthenticationStatusChanged" o-- "authentication_repository::src::authentication_repository.dart::AuthenticationStatus"
"lojin::authentication::bloc::authentication_bloc.dart::AuthenticationEvent" <|-- "lojin::authentication::bloc::authentication_bloc.dart::AuthenticationStatusChanged"

class "lojin::authentication::bloc::authentication_bloc.dart::AuthenticationLogoutRequested" {
}

"lojin::authentication::bloc::authentication_bloc.dart::AuthenticationEvent" <|-- "lojin::authentication::bloc::authentication_bloc.dart::AuthenticationLogoutRequested"

class "lojin::authentication::bloc::authentication_bloc.dart::AuthenticationState" {
  +AuthenticationStatus status
  +User user
  +List<Object> props
}

"lojin::authentication::bloc::authentication_bloc.dart::AuthenticationState" o-- "authentication_repository::src::authentication_repository.dart::AuthenticationStatus"
"lojin::authentication::bloc::authentication_bloc.dart::AuthenticationState" o-- "user_repository::src::models::user.dart::User"
"equatable::src::equatable.dart::Equatable" <|-- "lojin::authentication::bloc::authentication_bloc.dart::AuthenticationState"

class "lojin::codigos::model::codigo.dart::Codigo" {
  +int? id
  +String code
  +int type
  +Map<String, dynamic> toMap()
  +String toString()
}

class "lojin::codigos::model::codigolist.dart::CodigoPage" {
  +_CodigoPageState createState()
}

"flutter::src::widgets::framework.dart::StatefulWidget" <|-- "lojin::codigos::model::codigolist.dart::CodigoPage"

class "lojin::codigos::model::codigolist.dart::_CodigoPageState" {
  -DatabaseService _databaseService
  -Future<List<Codigo>> _getCodigos()
  +Widget build()
}

"lojin::codigos::model::codigolist.dart::_CodigoPageState" o-- "lojin::services::database_service.dart::DatabaseService"
"flutter::src::widgets::framework.dart::State" <|-- "lojin::codigos::model::codigolist.dart::_CodigoPageState"

class "lojin::configuraciones::view::configuraciones_page.dart::Configuraciones" {
  +String minCortesia
  +String minPago
  +String minPrecio
  +String capacidad
  +String infracPrecio
  +int minSalida
  +String contImp
  +String activo
}

class "lojin::generador::view::generador_page.dart::GeneradorPage" {
  +State<GeneradorPage> createState()
}

"flutter::src::widgets::framework.dart::StatefulWidget" <|-- "lojin::generador::view::generador_page.dart::GeneradorPage"

class "lojin::generador::view::generador_page.dart::_GeneradorPageState" {
  +Future<Configuraciones> futureConfiguracion
  +DateTime now
  +DateFormat formatter
  +DateFormat formatterFull
  +String formatted
  +String formattedFull
  -DatabaseService _databaseService
  +void initState()
  +Future<void> saveTicket()
  +Widget build()
}

"lojin::generador::view::generador_page.dart::_GeneradorPageState" o-- "intl::src::intl::date_format.dart::DateFormat"
"lojin::generador::view::generador_page.dart::_GeneradorPageState" o-- "lojin::services::database_service.dart::DatabaseService"
"flutter::src::widgets::framework.dart::State" <|-- "lojin::generador::view::generador_page.dart::_GeneradorPageState"

class "lojin::generadorqr::view::generadorqr_page.dart::GeneradorqrPage" {
  +State<GeneradorqrPage> createState()
}

"flutter::src::widgets::framework.dart::StatefulWidget" <|-- "lojin::generadorqr::view::generadorqr_page.dart::GeneradorqrPage"

class "lojin::generadorqr::view::generadorqr_page.dart::_GeneradorqrPageState" {
  +Future<Configuraciones> futureConfiguracion
  +DateTime now
  +DateFormat formatter
  +DateFormat formatterFull
  +String formatted
  +String formattedFull
  -DatabaseService _databaseService
  +void initState()
  +Future<void> saveTicket()
  +Widget build()
}

"lojin::generadorqr::view::generadorqr_page.dart::_GeneradorqrPageState" o-- "intl::src::intl::date_format.dart::DateFormat"
"lojin::generadorqr::view::generadorqr_page.dart::_GeneradorqrPageState" o-- "lojin::services::database_service.dart::DatabaseService"
"flutter::src::widgets::framework.dart::State" <|-- "lojin::generadorqr::view::generadorqr_page.dart::_GeneradorqrPageState"

class "lojin::home::view::home_page.dart::HomePage" {
  +State<HomePage> createState()
  {static} +Route<dynamic> route()
}

"flutter::src::widgets::framework.dart::StatefulWidget" <|-- "lojin::home::view::home_page.dart::HomePage"

class "lojin::home::view::home_page.dart::_HomePageState" {
  +Future<PlazasDisponibles> futurePlazasDisponibles
  +Future<Configuraciones> futureConfiguraciones
  +void initState()
  +Widget build()
}

"flutter::src::widgets::framework.dart::State" <|-- "lojin::home::view::home_page.dart::_HomePageState"
"flutter::src::widgets::routes.dart::RouteAware" <|-- "lojin::home::view::home_page.dart::_HomePageState"

class "lojin::login::bloc::login_bloc.dart::LoginBloc" {
  -AuthenticationRepository _authenticationRepository
  -void _onUsernameChanged()
  -void _onPasswordChanged()
  -void _onSubmitted()
}

"lojin::login::bloc::login_bloc.dart::LoginBloc" o-- "authentication_repository::src::authentication_repository.dart::AuthenticationRepository"
"bloc::src::bloc.dart::Bloc" <|-- "lojin::login::bloc::login_bloc.dart::LoginBloc"

abstract class "lojin::login::bloc::login_bloc.dart::LoginEvent" {
  +List<Object> props
}

"equatable::src::equatable.dart::Equatable" <|-- "lojin::login::bloc::login_bloc.dart::LoginEvent"

class "lojin::login::bloc::login_bloc.dart::LoginUsernameChanged" {
  +String username
  +List<Object> props
}

"lojin::login::bloc::login_bloc.dart::LoginEvent" <|-- "lojin::login::bloc::login_bloc.dart::LoginUsernameChanged"

class "lojin::login::bloc::login_bloc.dart::LoginPasswordChanged" {
  +String password
  +List<Object> props
}

"lojin::login::bloc::login_bloc.dart::LoginEvent" <|-- "lojin::login::bloc::login_bloc.dart::LoginPasswordChanged"

class "lojin::login::bloc::login_bloc.dart::LoginSubmitted" {
}

"lojin::login::bloc::login_bloc.dart::LoginEvent" <|-- "lojin::login::bloc::login_bloc.dart::LoginSubmitted"

class "lojin::login::bloc::login_bloc.dart::LoginState" {
  +FormzStatus status
  +Username username
  +Password password
  +List<Object> props
  +LoginState copyWith()
}

"lojin::login::bloc::login_bloc.dart::LoginState" o-- "formz::formz.dart::FormzStatus"
"lojin::login::bloc::login_bloc.dart::LoginState" o-- "lojin::login::models::username.dart::Username"
"lojin::login::bloc::login_bloc.dart::LoginState" o-- "lojin::login::models::password.dart::Password"
"equatable::src::equatable.dart::Equatable" <|-- "lojin::login::bloc::login_bloc.dart::LoginState"

class "lojin::login::models::password.dart::Password" {
  +PasswordValidationError? validator()
}

"formz::formz.dart::FormzInput" <|-- "lojin::login::models::password.dart::Password"

class "lojin::login::models::password.dart::PasswordValidationError" {
  +int index
  {static} +List<PasswordValidationError> values
  {static} +PasswordValidationError empty
}

"lojin::login::models::password.dart::PasswordValidationError" o-- "lojin::login::models::password.dart::PasswordValidationError"
"dart::core::Enum" <|-- "lojin::login::models::password.dart::PasswordValidationError"

class "lojin::login::models::username.dart::Username" {
  +UsernameValidationError? validator()
}

"formz::formz.dart::FormzInput" <|-- "lojin::login::models::username.dart::Username"

class "lojin::login::models::username.dart::UsernameValidationError" {
  +int index
  {static} +List<UsernameValidationError> values
  {static} +UsernameValidationError empty
}

"lojin::login::models::username.dart::UsernameValidationError" o-- "lojin::login::models::username.dart::UsernameValidationError"
"dart::core::Enum" <|-- "lojin::login::models::username.dart::UsernameValidationError"

class "lojin::login::view::login_form.dart::LoginForm" {
  +Widget build()
}

"flutter::src::widgets::framework.dart::StatelessWidget" <|-- "lojin::login::view::login_form.dart::LoginForm"

class "lojin::login::view::login_form.dart::_UsernameInput" {
  +Widget build()
}

"flutter::src::widgets::framework.dart::StatelessWidget" <|-- "lojin::login::view::login_form.dart::_UsernameInput"

class "lojin::login::view::login_form.dart::_PasswordInput" {
  +Widget build()
}

"flutter::src::widgets::framework.dart::StatelessWidget" <|-- "lojin::login::view::login_form.dart::_PasswordInput"

class "lojin::login::view::login_form.dart::_LoginButton" {
  +Widget build()
}

"flutter::src::widgets::framework.dart::StatelessWidget" <|-- "lojin::login::view::login_form.dart::_LoginButton"

class "lojin::login::view::login_page.dart::LoginPage" {
  {static} +Route<dynamic> route()
  +Widget build()
}

"flutter::src::widgets::framework.dart::StatelessWidget" <|-- "lojin::login::view::login_page.dart::LoginPage"

class "lojin::myapp.dart::App" {
  +AuthenticationRepository authenticationRepository
  +UserRepository userRepository
  +Widget build()
}

"lojin::myapp.dart::App" o-- "authentication_repository::src::authentication_repository.dart::AuthenticationRepository"
"lojin::myapp.dart::App" o-- "user_repository::src::user_repository.dart::UserRepository"
"flutter::src::widgets::framework.dart::StatelessWidget" <|-- "lojin::myapp.dart::App"

class "lojin::myapp.dart::AppView" {
  +_AppViewState createState()
}

"flutter::src::widgets::framework.dart::StatefulWidget" <|-- "lojin::myapp.dart::AppView"

class "lojin::myapp.dart::_AppViewState" {
  -GlobalKey<NavigatorState> _navigatorKey
  -NavigatorState _navigator
  +Widget build()
}

"lojin::myapp.dart::_AppViewState" o-- "flutter::src::widgets::framework.dart::GlobalKey<NavigatorState>"
"lojin::myapp.dart::_AppViewState" o-- "flutter::src::widgets::navigator.dart::NavigatorState"
"flutter::src::widgets::framework.dart::State" <|-- "lojin::myapp.dart::_AppViewState"

class "lojin::plazas_disponibles::view::plazas_disponibles_page.dart::PlazasDisponibles" {
  +String capacidadTotal
}

class "lojin::services::database_service.dart::DatabaseService" {
  {static} -DatabaseService _databaseService
  {static} -Database? _database
  +Future<Database> database
  -Future<Database> _initDatabase()
  -Future<void> _onCreate()
  +Future<void> insertCodigo()
  +Future<List<Codigo>> codigos()
  +Future<Codigo> codigo()
  +Future<void> updateCodigo()
  +Future<void> deleteCodigo()
}

"lojin::services::database_service.dart::DatabaseService" o-- "lojin::services::database_service.dart::DatabaseService"
"lojin::services::database_service.dart::DatabaseService" o-- "sqflite_common::sqlite_api.dart::Database"

class "lojin::splash::view::splash_page.dart::SplashPage" {
  {static} +Route<dynamic> route()
  +Widget build()
}

"flutter::src::widgets::framework.dart::StatelessWidget" <|-- "lojin::splash::view::splash_page.dart::SplashPage"

class "lojin::valorpagar::view::valorpagar_page.dart::ValorPagar" {
  +String dispCod
  +String codigo
  +String fechaIni
  +String minutos
  +String estado
  +String fechaFact
  +String tipo
  +String estadoVehiculo
}

class "lojin::valorpagar::view::valorpagar_page.dart::ValorPagarPage" {
  +String codigo
  +int tipo
  +State<ValorPagarPage> createState()
}

"flutter::src::widgets::framework.dart::StatefulWidget" <|-- "lojin::valorpagar::view::valorpagar_page.dart::ValorPagarPage"

class "lojin::valorpagar::view::valorpagar_page.dart::_ValorPagarPageState" {
  +Future<ValorPagar> futureConfiguracion
  +void initState()
  +Future<ValorPagar> fetchConfiguracion()
  +Widget build()
}

"flutter::src::widgets::framework.dart::State" <|-- "lojin::valorpagar::view::valorpagar_page.dart::_ValorPagarPageState"

class "lojin::widgets::codigosbuilder.dart::CodigoBuilder" {
  +Future<List<Codigo>> future
  +Widget build()
  -Widget _buildCodigoCard()
}

"flutter::src::widgets::framework.dart::StatelessWidget" <|-- "lojin::widgets::codigosbuilder.dart::CodigoBuilder"


@enduml